#VRML V2.0 utf8

# This file is free software; the Free Software Foundation
# gives unlimited permission to copy, distribute and modify it.

EXTERNPROTO SuperExtrusion
  [
  field SFFloat creaseAngle
  field MFFloat knot
  field SFInt32 order
  field SFBool beginCap
  field SFBool endCap
  field MFVec2f scale
  exposedField SFFloat a
  exposedField SFFloat b
  exposedField SFFloat m
  exposedField SFFloat n1
  exposedField SFFloat n2
  exposedField SFFloat n3
  exposedField SFFloat border
  exposedField SFFloat bottomBorder
  exposedField SFInt32 superTessellation
  exposedField SFInt32 spineTessellation
  exposedField MFVec3f controlPoint
  exposedField MFFloat weight
  ]
    [
    "SuperExtrusionPROTO.wrl"
    "http://129.69.35.12/dune/docs/scriptedNodes/SuperExtrusionPROTO.wrl"
    ]


Transform 
  {
  children 
    [
    Shape 
      {
      appearance       Appearance 
	{
	material 	Material 
	  {
	  }
	}
      geometry       SuperExtrusion 
	{
	controlPoint 
	  [
	  0 0 -0.279998 
	  -0.197989 0 -0.197989 
	  -0.279998 0 1.053671e-8 
	  -0.197989 0 0.197989 
	  3.161013e-8 0 0.279998 
	  0.197989 0 0.197989 
	  0.279998 0 -1.053671e-8 
	  0.197989 0 -0.197989 
	  -5.268356e-8 0 -0.279998 
	  ]
	weight 
	  [
	  1 
	  0.707104 
	  1 
	  0.707104 
	  1 
	  0.707104 
	  1 
	  0.707104 
	  1 
	  ]
	knot 
	  [
	  0 
	  0 
	  0 
	  0.250000 
	  0.250000 
	  0.500000 
	  0.500000 
	  0.750000 
	  0.750000 
	  1 
	  1 
	  1 
	  ]
	scale 
	  [
	  0.100000 0.100000 
	  ]
	}
      }
    ]
  }

